{
  "floorPlan": [{
    "floorID": "<floor number>",
    "imagePath": "<path>",
    "imageWidth": "<width>",
    "imageHeight": "<height>"
    }
  ],

  "node": [
  {
    "poi": [
	{
        "id": "A210p",
        "title": [{
                "language": "EN",
                "title": "A210 Point of interest"
              } 
            ],
            "description": [{
                "language": "EN",
                "description": "A210 Point of interest"
              } 
            ],
        "x": "-27.24",
        "y": "-64",
        "floorID": "2",
        "iBeacon": {
          "uuid": "B9407F30-F5F8-466E-AFF9-25556B57FE6D", 
          "major": "48995", 
          "minor": "64451"
          },
        "media": {
                "video": [{
                  "path": "android.resource://com.companyname.doppler/intro.mp4",
                  "language": "EN",
                  "caption": "vid1"
                  }
                ]
            },
        "storyPoint": [{
          "storylineID": "1",
          "title": [{
                  "language": "EN",
                  "title": "Nipper"
                } 
              ],
              "description": [{
                  "language": "EN",
                  "description": "<description>"
                }
              ],
          "media": {
                  "image": [{
                    "path": "<URL>",
                    "language": "<language>",
                    "caption": "<caption>"
                    } 
                  ],
                  "video": [{
                    "path": "<URL>",
                    "language": "<language>",
                    "caption": "<caption>"
                    } 
                  ],
                  "audio": [{
                    "path": "<URL>",
                    "language": "<language>",
                    "caption": "<caption>"
                    } 
                  ]
              }
             } 
           ] 
        } ,

		{
        "id": "A232p",
        "title": [{
                "language": "EN",
                "title": "A232 Point of interest"
              } 
            ],
            "description": [{
                "language": "EN",
                "description": "A232 Point of interest description"
              } 
            ],
        "x": "48.45",
        "y": "-64",
        "floorID": "2",
        "iBeacon": {
          "uuid": "B9407F30-F5F8-466E-AFF9-25556B57FE6D", 
          "major": "38714", 
          "minor": "26839"
          },
        "media": {
                "image": [{
                  "path": "<URL>",
                  "language": "EN",
                  "caption": "<caption>"
                  } 
                ],
                "video": [{
                  "path": "<URL>",
                  "language": "EN",
                  "caption": "<caption>"
                  }
                ],
                "audio": [{
                  "path": "<URL>",
                  "language": "EN",
                  "caption": "<caption>"
                  } 
                ]
            },
        "storyPoint": [{
          "storylineID": "1",
          "title": [{
                  "language": "EN",
                  "title": "Nipper"
                } 
              ],
              "description": [{
                  "language": "EN",
                  "description": "<description>"
                }
              ],
          "media": {
                  "image": [{
                    "path": "<URL>",
                    "language": "<language>",
                    "caption": "<caption>"
                    } 
                  ],
                  "video": [{
                    "path": "<URL>",
                    "language": "<language>",
                    "caption": "<caption>"
                    } 
                  ],
                  "audio": [{
                    "path": "<URL>",
                    "language": "<language>",
                    "caption": "<caption>"
                    } 
                  ]
              }
             } 
           ] 
        } ,

	
		{
        "id": "B338p",
        "title": [{
                "language": "EN",
                "title": "B338 Point of interest"
              } 
            ],
            "description": [{
                "language": "EN",
                "description": "A210 Point of interest"
              } 
            ],
        "x": "-82.06",
        "y": "38.06",
        "floorID": "3",
        "iBeacon": {
          "uuid": "1", 
          "major": "1", 
          "minor": "1"
          },
        "media": {
                "image": [{
                  "path": "<URL>",
                  "language": "EN",
                  "caption": "<caption>"
                  } 
                ],
                "video": [{
                  "path": "<URL>",
                  "language": "EN",
                  "caption": "<caption>"
                  }
                ],
                "audio": [{
                  "path": "<URL>",
                  "language": "EN",
                  "caption": "<caption>"
                  } 
                ]
            },
        "storyPoint": [{
          "storylineID": "1",
          "title": [{
                  "language": "EN",
                  "title": "Nipper"
                } 
              ],
              "description": [{
                  "language": "EN",
                  "description": "<description>"
                }
              ],
          "media": {
                  "image": [{
                    "path": "<URL>",
                    "language": "<language>",
                    "caption": "<caption>"
                    } 
                  ],
                  "video": [{
                    "path": "<URL>",
                    "language": "<language>",
                    "caption": "<caption>"
                    } 
                  ],
                  "audio": [{
                    "path": "<URL>",
                    "language": "<language>",
                    "caption": "<caption>"
                    } 
                  ]
              }
             } 
           ] 
        } 
        ],
    
      "pot": [{
        "id": "A236",
            "label": {
                "language": "EN",
                "label": "stairs"
            },
            "x": "67.2",
            "y": "-62",
            "floorID": "2"
      },
      {
        "id": "A232",
            "label": {
                "language": "EN",
                "label": "exit"
            },
            "x": "49.4",
            "y": "-63",
            "floorID": "2"
      },
    
		{
        "id": "A229",
            "label": {
                "language": "EN",
                "label": "stairs"
            },
            "x": "34",
            "y": "-63",
            "floorID": "2"
      },
	  

		{
        "id": "A201",
            "label": {
                "language": "EN",
                "label": "intersection"
            },
            "x": "-36.5",
            "y": "-63",
            "floorID": "2"
      },
      
      {
        "id": "A210-1",
            "label": {
                "language": "EN",
                "label": "elevator"
            },
            "x": "-36.6",
            "y": "-70.5",
            "floorID": "2"
      },
      {
        "id": "A210-2",
            "label": {
                "language": "EN",
                "label": "stairs"
            },
            "x": "-36.6",
            "y": "-70.5",
            "floorID": "2"
      },
      

      {
        "id": "A202-1",
            "label": {
                "language": "EN",
                "label": "exit"
            },
            "x": "-37.2",
            "y": "-55",
            "floorID": "2"
      },
      {
        "id": "A202-2",
            "label": {
                "language": "EN",
                "label": "intersection"
            },
            "x": "-37.2",
            "y": "-55",
            "floorID": "2"
      },
      

      {
        "id": "A2passEnd",
            "label": {
                "language": "EN",
                "label": "intersection"
            },
            "x": "-36.6",
            "y": "-39.2",
            "floorID": "2"
      },
      
		{
        "id": "A2passStart",
            "label": {
                "language": "EN",
                "label": "intersection"
            },
            "x": "-27.7",
            "y": "-26.7",
            "floorID": "2"
      },
      
      {
        "id": "E210",
            "label": {
                "language": "EN",
                "label": "intersection"
            },
            "x": "-27.2",
            "y": "-2",
            "floorID": "2"
      },
      
      {
        "id": "A213",
            "label": {
                "language": "EN",
                "label": "museum"
            },
            "x": "-79.9",
            "y": "-54.9",
            "floorID": "2"
      },

      {
        "id": "B230",
            "label": {
                "language": "EN",
                "label": "stairs"
            },
            "x": "-80.4",
            "y": "-62.2",
            "floorID": "2"
      },

      {
        "id": "B241",
            "label": {
                "language": "EN",
                "label": "restaurant"
            },
            "x": "-80.9",
            "y": "28.7",
            "floorID": "2"
      },

      {
        "id": "B245",
            "label": {
                "language": "EN",
                "label": "washroom"
            },
            "x": "-77.9",
            "y": "30.7",
            "floorID": "2"
      },

      {
        "id": "B250",
            "label": {
                "language": "EN",
                "label": "stairs"
            },
            "x": "-68.4",
            "y": "33.8",
            "floorID": "2"
      },

      {
        "id": "B253",
            "label": {
                "language": "EN",
                "label": "intersection"
            },
            "x": "-38",
            "y": "39.7",
            "floorID": "2"
      },


      {
        "id": "B252",
            "label": {
                "language": "EN",
                "label": "intersection"
            },
            "x": "-36",
            "y": "54.4",
            "floorID": "2"
      },

      {
        "id": "B255-1",
            "label": {
                "language": "EN",
                "label": "elevator"
            },
            "x": "-27.7",
            "y": "56.3",
            "floorID": "2"
      },
      {
        "id": "B255-2",
            "label": {
                "language": "EN",
                "label": "stairs"
            },
            "x": "-27.7",
            "y": "56.3",
            "floorID": "2"
      },

      {
        "id": "B218",
            "label": {
                "language": "EN",
                "label": "intersection"
            },
            "x": "-18.3",
            "y": "57.3",
            "floorID": "2"
      },

      {
        "id": "B217-1",
            "label": {
                "language": "EN",
                "label": "exit"
            },
            "x": "-14.7",
            "y": "48.6",
            "floorID": "2"
      },
      {
        "id": "B17-2",
            "label": {
                "language": "EN",
                "label": "intersection"
            },
           "x": "-14.7",
            "y": "48.6",
            "floorID": "2"
      },

      {
        "id": "BpassEnd",
            "label": {
                "language": "EN",
                "label": "intersection"
            },
            "x": "-26.7",
            "y": "38.7",
            "floorID": "2"
      },

      {
        "id": "B214",
            "label": {
                "language": "EN",
                "label": "stairs"
            },
            "x": "12",
            "y": "51.4",
            "floorID": "2"
      },

      {
        "id": "B215",
            "label": {
                "language": "EN",
                "label": "intersection"
            },
            "x": "23.73",
            "y": "49.04",
            "floorID": "2"
      },

      {
        "id": "C210",
            "label": {
                "language": "EN",
                "label": "stairs"
            },
            "x": "44.6",
            "y": "51.7",
            "floorID": "2"
      },

      {
        "id": "C220-1",
            "label": {
                "language": "EN",
                "label": "intersection"
            },
            "x": "73.2",
            "y": "58.4",
            "floorID": "2"
      },
      {
        "id": "C220-2",
            "label": {
                "language": "EN",
                "label": "exit"
            },
            "x": "73.2",
            "y": "58.4",
            "floorID": "2"
      },


      {
        "id": "C212",
            "label": {
                "language": "EN",
                "label": "intersection"
            },
            "x": "74.5",
            "y": "73.5",
            "floorID": "2"
      },


      {
        "id": "C224-1",
            "label": {
                "language": "EN",
                "label": "stairs"
            },
            "x": "78",
            "y": "74.8",
            "floorID": "2"
      },
      {
        "id": "C224-2",
            "label": {
                "language": "EN",
                "label": "exit"
            },
            "x": "78",
            "y": "74.8",
            "floorID": "2"
      },

      {
        "id": "D202",
            "label": {
                "language": "EN",
                "label": "stairs"
            },
            "x": "34.7",
            "y": "1",
            "floorID": "2"
      },


      {
        "id": "D214a",
            "label": {
                "language": "EN",
                "label": "intersection"
            },
            "x": "52.4",
            "y": "0.4",
            "floorID": "2"
      },

      {
        "id": "D214",
            "label": {
                "language": "EN",
                "label": "intersection"
            },
            "x": "52.8",
            "y": "-11.2",
            "floorID": "2"
      },

  
        {
          "id": "B2passEnd",
              "label": {
                  "language": "EN",
                  "label": "intersection"
              },
              "x": "-26.27",
              "y": "40.8",
              "floorID": "2"
        },

      {
        "id": "D220-1",
            "label": {
                "language": "EN",
                "label": "stairs"
            },
            "x": "57.9",
            "y": "-10.8",
            "floorID": "2"
      },
      {
        "id": "D220-2",
            "label": {
                "language": "EN",
                "label": "exit"
            },
             "x": "57.9",
            "y": "-10.8",
            "floorID": "2"
      },

      {
        "id": "A317",
            "label": {
                "language": "EN",
                "label": "stairs"
            },
            "x": "72.13",
            "y": "-55.54",
            "floorID": "3"
      },

      {
        "id": "A319",
            "label": {
                "language": "EN",
                "label": "exit"
            },
            "x": "51.18",
            "y": "-55.72",
            "floorID": "3"
      },

      {
        "id": "A314",
            "label": {
                "language": "EN",
                "label": "intersection"
            },
            "x": "51.18",
            "y": "-62.05",
            "floorID": "3"
      },

      {
        "id": "A313",
            "label": {
                "language": "EN",
                "label": "stairs"
            },
            "x": "43.07",
            "y": "-61.52",
            "floorID": "3"
      },


      {
        "id": "A312",
            "label": {
                "language": "EN",
                "label": "intersection"
            },
            "x": "39.23",
            "y": "-62.23",
            "floorID": "3"
      },

      {
        "id": "A303",
            "label": {
                "language": "EN",
                "label": "intersection"
            },
            "x": "39.96",
            "y": "-55.54",
            "floorID": "3"
      },


      {
        "id": "A302",
            "label": {
                "language": "EN",
                "label": "intersection"
            },
            "x": "-21.78",
            "y": "-55.55",
            "floorID": "3"
      },

      {
        "id": "A321",
            "label": {
                "language": "EN",
                "label": "exit"
            },
            "x": "-41.77",
            "y": "-66.80",
            "floorID": "3"
      },

      {
        "id": "A300-1",
            "label": {
                "language": "EN",
                "label": "stairs"
            },
            "x": "-32.62",
            "y": "-67.59",
            "floorID": "3"
      },
      {
        "id": "A300-2",
            "label": {
                "language": "EN",
                "label": "elevator"
            },
            "x": "-32.62",
            "y": "-67.59",
            "floorID": "3"
      },

      {
        "id": "A301",
            "label": {
                "language": "EN",
                "label": "intersection"
            },
            "x": "-32.69",
            "y": "-53.44",
            "floorID": "3"
      },

      {
        "id": "A329",
            "label": {
                "language": "EN",
                "label": "intersection"
            },
            "x": "-80.91",
            "y": "-55.63",
            "floorID": "3"
      },


      {
        "id": "B330",
            "label": {
                "language": "EN",
                "label": "stairs"
            },
            "x": "-80.91",
            "y": "-68.64",
            "floorID": "3"
      },

      {
        "id": "B338",
            "label": {
                "language": "EN",
                "label": "intersection"
            },
            "x": "-82.06",
            "y": "38.06",
            "floorID": "3"
      },


      {
        "id": "B340",
            "label": {
                "language": "EN",
                "label": "washroom"
            },
            "x": "-79.58",
            "y": "39.38",
            "floorID": "3"
      },


      {
        "id": "B368",
            "label": {
                "language": "EN",
                "label": "stairs"
            },
            "x": "-67.44",
            "y": "42.54",
            "floorID": "3"
      },


      {
        "id": "B362",
            "label": {
                "language": "EN",
                "label": "intersection"
            },
            "x": "-31.73",
            "y": "47.99",
            "floorID": "3"
      },

      {
        "id": "B350-1",
            "label": {
                "language": "EN",
                "label": "elevator"
            },
            "x": "-22.02",
            "y": "56.43",
            "floorID": "3"
      },
      {
        "id": "B350-2",
            "label": {
                "language": "EN",
                "label": "stairs"
            },
            "x": "-22.02",
            "y": "56.43",
            "floorID": "3"
      }
      ]
}],


  "edge": [{
        "startNode": "A236",
        "endNode": "A232p",
        "floorNumber": "2",
        "distance": "<distance>"
    } ,
  
  {
        "startNode": "A232p",
        "endNode": "A229",
        "floorNumber": "2",
        "distance": "<distance>"
    } ,
  
  {
        "startNode": "A229",
        "endNode": "A210p",
        "floorNumber": "2",
        "distance": "<distance>"
    } ,
  
  {
        "startNode": "A210p",
        "endNode": "A201",
        "floorNumber": "2",
        "distance": "<distance>"
    }, 
  
    {
        "startNode": "A201",
        "endNode": "A210-1",
        "floorNumber": "2",
        "distance": "<distance>"
    } ,
  
  {
        "startNode": "A201",
        "endNode": "A202-1",
        "floorNumber": "2",
        "distance": "<distance>"
    } ,
  
   {
        "startNode": "A202-1",
        "endNode": "A2passEnd",
        "floorNumber": "2",
        "distance": "<distance>"
    } ,
  
  {
        "startNode": "A202-1",
        "endNode": "A213",
        "floorNumber": "2",
        "distance": "<distance>"
    } ,
  
  {
        "startNode": "A213",
        "endNode": "B230",
        "floorNumber": "2",
        "distance": "<distance>"
    } ,
  
   {
        "startNode": "A213",
        "endNode": "B241",
        "floorNumber": "2",
        "distance": "<distance>"
    } ,
  
  {
        "startNode": "B241",
        "endNode": "B245",
        "floorNumber": "2",
        "distance": "<distance>"
    } ,
  
  {
        "startNode": "B245",
        "endNode": "B250",
        "floorNumber": "2",
        "distance": "<distance>"
    } ,
  
  {
        "startNode": "B250",
        "endNode": "B253",
        "floorNumber": "2",
        "distance": "<distance>"
    } ,
  
  {
        "startNode": "B253",
        "endNode": "B252",
        "floorNumber": "2",
        "distance": "<distance>"
    } ,
  
  {
        "startNode": "B252",
        "endNode": "B255-1",
        "floorNumber": "2",
        "distance": "<distance>"
    } ,
  
  {
        "startNode": "B255-1",
        "endNode": "B218",
        "floorNumber": "2",
        "distance": "<distance>"
    } ,
  
  {
        "startNode": "B218",
        "endNode": "B217-1",
        "floorNumber": "2",
        "distance": "<distance>"
    } ,
  
  {
        "startNode": "B217-1",
        "endNode": "B2passEnd",
        "floorNumber": "2",
        "distance": "<distance>"
    } ,
  
  {
        "startNode": "B217-1",
        "endNode": "B214",
        "floorNumber": "2",
        "distance": "<distance>"
    } ,
  
  {
        "startNode": "B214",
        "endNode": "B215",
        "floorNumber": "2",
        "distance": "<distance>"
    } ,
  
  {
        "startNode": "B215",
        "endNode": "C210",
        "floorNumber": "2",
        "distance": "<distance>"
    } ,
  
  {
        "startNode": "C210",
        "endNode": "C220-1",
        "floorNumber": "2",
        "distance": "<distance>"
    } ,
  
  {
        "startNode": "C220-1",
        "endNode": "C212",
        "floorNumber": "2",
        "distance": "<distance>"
    } ,
  
  {
        "startNode": "C212",
        "endNode": "C224-1",
        "floorNumber": "2",
        "distance": "<distance>"
    } ,
  
  {
        "startNode": "A2passEnd",
        "endNode": "A2passStart",
        "floorNumber": "2",
        "distance": "<distance>"
    } ,
  
  {
        "startNode": "A2passStart",
        "endNode": "E210",
        "floorNumber": "2",
        "distance": "<distance>"
    } ,
  
  {
        "startNode": "E210",
        "endNode": "B2passEnd",
        "floorNumber": "2",
        "distance": "<distance>"
    } ,
  
  {
        "startNode": "E210",
        "endNode": "D202",
        "floorNumber": "2",
        "distance": "<distance>"
    } ,
  
  {
        "startNode": "D202",
        "endNode": "D214a",
        "floorNumber": "2",
        "distance": "<distance>"
    } ,
  
  {
        "startNode": "D214a",
        "endNode": "D214",
        "floorNumber": "2",
        "distance": "<distance>"
    } ,
  
  {
        "startNode": "D214",
        "endNode": "D220-1",
        "floorNumber": "2",
        "distance": "<distance>"
    } ,

    {
        "startNode": "A317",
        "endNode": "A319",
        "floorNumber": "3",
        "distance": "<distance>"
    } ,

    {
        "startNode": "A314",
        "endNode": "A319",
        "floorNumber": "3",
        "distance": "<distance>"
    } ,

    {
        "startNode": "A314",
        "endNode": "A313",
        "floorNumber": "3",
        "distance": "<distance>"
    } ,

    {
        "startNode": "A312",
        "endNode": "A313",
        "floorNumber": "3",
        "distance": "<distance>"
    } ,

    {
        "startNode": "A312",
        "endNode": "A303",
        "floorNumber": "3",
        "distance": "<distance>"
    } ,

    {
        "startNode": "A302",
        "endNode": "A303",
        "floorNumber": "3",
        "distance": "<distance>"
    } ,

    {
        "startNode": "A302",
        "endNode": "A301",
        "floorNumber": "3",
        "distance": "<distance>"
    } ,

    {
        "startNode": "A300-1",
        "endNode": "A301",
        "floorNumber": "3",
        "distance": "<distance>"
    } ,

    {
        "startNode": "A300-1",
        "endNode": "A321",
        "floorNumber": "3",
        "distance": "<distance>"
    } ,

    {
        "startNode": "A301",
        "endNode": "A329",
        "floorNumber": "3",
        "distance": "<distance>"
    } ,

    {
        "startNode": "B330",
        "endNode": "A329",
        "floorNumber": "3",
        "distance": "<distance>"
    } ,

    {
        "startNode": "B338p",
        "endNode": "A329",
        "floorNumber": "3",
        "distance": "<distance>"
    } ,

    {
        "startNode": "B338p",
        "endNode": "B340",
        "floorNumber": "3",
        "distance": "<distance>"
    } ,

    {
        "startNode": "B368",
        "endNode": "B340",
        "floorNumber": "3",
        "distance": "<distance>"
    } ,

    {
        "startNode": "B368",
        "endNode": "B362",
        "floorNumber": "3",
        "distance": "<distance>"
    } ,

    {
        "startNode": "B350-2",
        "endNode": "B362",
        "floorNumber": "3",
        "distance": "<distance>"
    } ,

     {
        "startNode": "A317",
        "endNode": "A236",
        "floorNumber": "2",
        "distance": "<distance>"
    } ,

    {
        "startNode": "A313",
        "endNode": "A229",
        "floorNumber": "2",
        "distance": "<distance>"
    } ,

    {
        "startNode": "A300-1",
        "endNode": "A210-2",
        "floorNumber": "2",
        "distance": "<distance>"
    } ,

    {
        "startNode": "B330",
        "endNode": "B230",
        "floorNumber": "2",
        "distance": "<distance>"
    } ,

     {
        "startNode": "B368",
        "endNode": "B250",
        "floorNumber": "2",
        "distance": "<distance>"
    } ,

       {
        "startNode": "B350-2",
        "endNode": "B255-2",
        "floorNumber": "2",
        "distance": "<distance>"
    } ],
  
	"storyline": [{
    "id": "1",
    "title": [{
      "language": "EN",
      "title": "Nipper"
    }],
    "description": [{
      "language": "EN",
      "description": "Follow Nipper as he searches for his master!"
    }],
    "path": ["E210", "A2passStart", "A2passEnd", "A202-1", "A213", "B241", "B245","B250", "B253", "B252", "B255-1", "B218", "B217-1"],
    "thumbnail": "<path of thumbnail>",
    "walkingTimeInMinutes": "25",
    "floorsCovered": "1"
  },

  {
    "id": "2",
    "title": [{
      "language": "EN",
      "title": "RCA 2nd and 3rd floors"
    }],
    "description": [{
      "language": "EN",
      "description": "Discover the 2nd and 3rd floors of the RCA Building!"
    }],
    "path": ["A210p", "A232p", "A202-1","A213", "B241", "B245","B250", "B253", "B252", "B255-2", "B350-2", "B362", "B368",
    "B338", "B330", "A302", "A303", "A312", "A313", "A314"],
    "thumbnail": "<path of thumbnail>",
    "walkingTimeInMinutes": "25",
    "floorsCovered": "1"
  }]
}